%YAML 1.1
%TAG !u! tag:unity3d.com,2011:
--- !u!114 &11400000
MonoBehaviour:
  m_ObjectHideFlags: 0
  m_CorrespondingSourceObject: {fileID: 0}
  m_PrefabInstance: {fileID: 0}
  m_PrefabAsset: {fileID: 0}
  m_GameObject: {fileID: 0}
  m_Enabled: 1
  m_EditorHideFlags: 0
  m_Script: {fileID: 11500000, guid: 051a6c3c082073a4d920fa7ae59a0c8d, type: 3}
  m_Name: Bullet_1
  m_EditorClassIdentifier: 
  Id: 1
  NameBullet: 
  DamageBullet: 100
  SpeedMoveBullet: 15
  PushBackBullet: 0
  Model: {fileID: 4875944779475621324, guid: d1653250a707f284c886ddb57ccde7cf, type: 3}
