%YAML 1.1
%TAG !u! tag:unity3d.com,2011:
--- !u!1045 &1
EditorBuildSettings:
  m_ObjectHideFlags: 0
  serializedVersion: 2
  m_Scenes:
  - enabled: 1
    path: Assets/Scenes/Loading.unity
    guid: 75bb440a556016c4da5b75d6270e0b40
  - enabled: 1
    path: Assets/Scenes/Main.unity
    guid: 1857d4de8dc2c8e48bd99c21f1fcc91e
  m_configObjects: {}
